…
topwords2
## # A tibble: 1,471 x 10
## # Groups:   season_num [?]
##       ID  Timecode.in Timecode.out         season season_num episode_num
##    <chr>        <chr>        <chr>          <chr>      <dbl>       <dbl>
##  1    15 00:00:34.320 00:00:36.680 rick-and-morty          1           1
##  2    48 00:01:33.790 00:01:34.724 rick-and-morty          1           1
##  3    57 00:01:49.720 00:01:50.625 rick-and-morty          1           1
##  4    69 00:02:45.220 00:02:46.995 rick-and-morty          1           1
##  5    82 00:03:09.650 00:03:10.465 rick-and-morty          1           1
##  6    84 00:03:12.050 00:03:14.789 rick-and-morty          1           1
##  7    92 00:03:29.349 00:03:30.724 rick-and-morty          1           1
##  8   104 00:03:56.889 00:03:58.724 rick-and-morty          1           1
##  9   104 00:03:56.889 00:03:58.724 rick-and-morty          1           1
## 10   106 00:03:59.949 00:04:02.794 rick-and-morty          1           1
## # ... with 1,461 more rows, and 4 more variables: serie <chr>, word <chr>,
## #   sentiment <chr>, n <int>
…
